…
### Distance to work

``` r
df %>% 
  count(j_workdis)
```

    ## # A tibble: 133 x 2
    ##    j_workdis     n
    ##        <dbl> <int>
    ##  1        -8 16190
    ##  2        -7   804
    ##  3        -2    91
    ##  4        -1   777
    ##  5         0   611
    ##  6         1  1989
    ##  7         2  1622
    ##  8         3  1571
    ##  9         4  1013
    ## 10         5  1304
    ## # … with 123 more rows
…
