…
## Income data

### Hours worked

``` r
df %>% 
  count(j_jbhrs)
```

    ## # A tibble: 181 x 2
    ##              j_jbhrs     n
    ##            <dbl+lbl> <int>
    ##  1 -8 [inapplicable] 17724
    ##  2 -2 [refusal]        117
    ##  3 -1 [don't know]     229
    ##  4  0.1                 12
    ##  5  1                   14
    ##  6  1.5                  5
    ##  7  2                   37
    ##  8  2.5                  2
    ##  9  3                   36
    ## 10  3.5                  3
    ## # … with 171 more rows

### Usual pay

``` r
df %>% 
  count(j_payu)
```

    ## # A tibble: 424 x 2
    ##    j_payu     n
    ##     <dbl> <int>
    ##  1     -8 32322
    ##  2     -7   804
    ##  3     -2    28
    ##  4     -1    92
    ##  5      0    16
    ##  6      5     1
    ##  7      6     1
    ##  8      7     2
    ##  9      8     4
    ## 10      9     3
    ## # … with 414 more rows
